<svg width="700pt" height="700pt" version="1.1" viewBox="0 0 700 700" xmlns="http://www.w3.org/2000/svg">
 <path d="m306.32 272.44c-12.301-20.309-18.43-43.754-17.641-67.48-0.29688-32.824 12.457-64.422 35.457-87.844 22.996-23.418 54.359-36.742 87.184-37.039h2.5195c32.824-0.29688 64.422 12.457 87.84 35.457 23.422 23 36.746 54.359 37.039 87.184v2.2422c0.30078 32.824-12.453 64.422-35.453 87.84-23 23.422-54.363 36.742-87.188 37.039h-2.2383c-25.871 0.53516-51.246-7.1094-72.52-21.84l-57.68 56 28 28-35.281 35.559-28-28-17.359 17.641 28 28-35.281 34.723-62.438-62.441zm107.52-142.52c-19.992-0.30859-39.258 7.5-53.398 21.641s-21.945 33.402-21.641 53.398c-1.2656 20.656 6.0625 40.922 20.242 55.996 14.18 15.074 33.961 23.625 54.656 23.625 20.699 0 40.477-8.5508 54.656-23.625 14.184-15.074 21.508-35.34 20.246-55.996 0-19.855-7.8672-38.898-21.883-52.965-14.012-14.062-33.027-22.004-52.879-22.074z"/>
</svg>
